//single item (sample laravel backend response)
{
	"id": 1,
	"name": "John Doe",
	"email": "johndoe@example.com",
	"created_at": "2018-07-09 10:02:14",
	"updated_at": "2018-07-09 10:02:14"
}

//collection (sample laravel backend response)
{
	"current_page": 1,
	"data": [
		{
			"id": 1,
			"name": "John Doe",
			"email": "johndoe@example.com",
			"created_at": "2018-07-09 10:02:14",
			"updated_at": "2018-07-09 10:02:14"
		},
		{
			"id": 2,
			"name": "Gladyce Kuhn",
			"email": "xryan@example.com",
			"created_at": "2018-07-09 10:02:14",
			"updated_at": "2018-07-09 10:02:14"
		}
	],
	"first_page_url": "http://someapp/users?page=1",
	"from": 1,
	"last_page": 4,
	"last_page_url": "http://someapp/users?page=4&per_page=2",
	"next_page_url": "http://someapp/users?page=2&per_page=2",
	"path": "http://someapp/users",
	"per_page": 2,
	"prev_page_url": null,
	"to": 2,
	"total": 8
}

//http://someapp/photos/29527430-835f-11e8-8be7-bbb6057a2242?include=user
{
	"id": "29527430-835f-11e8-8be7-bbb6057a2242",
	"user_id": 1,
	"title": "My First Photo",
	"mime": "png",
	"created_at": "2018-07-09 10:02:17",
	"updated_at": "2018-07-09 10:02:17",
	"download_link": "http://someapp/photos/29527430-835f-11e8-8be7-bbb6057a2242/download/my-first-photo-original.png",
	"thumbnail_link": "http://someapp/photos/29527430-835f-11e8-8be7-bbb6057a2242/thumbnail/my-first-photo-thumbnail.png",
	"user": {
		"id": 1,
		"name": "John Doe",
		"email": "johndoe@example.com",
		"created_at": "2018-07-09 10:02:14",
		"updated_at": "2018-07-09 10:02:14"
	}
}
